@startuml
'https://plantuml.com/class-diagram
class MonoBehaviour{}
class AreaCalculator extends ScriptableObject{
+ IsInside(Vector3 position,GameObject obj):boolean
}
enum Weapons
{
    LASER = 0,
    BULLET=1,
    ROCKET = 2
}
enum States
{
    MENU,
    PLAY,
    GAMEOVER,
    WIN
}
enum Character
{
    PLAYER,
    ENEMY
}
enum Layers
{
    PLANET=3,
    BOUNDARY=6,
    PLAYER=7,
    PLAYERWEAPON=8,
    WALL=9,
    DESTROYER=10,
    MYSTERYSHIP=11,
}
interface Shootable{
    Move(GameObject obj, float speed):void
    OnCollide(GameObject obj):void
}
abstract class Weapon extends MonoBehaviour implements Shootable{
    + OnCollide(GameObject obj):void
    + Move(GameObject obj, float speed):void
}
abstract class Destroyer extends MonoBehaviour implements Shootable{
    + Vector3 direction;
    + System.Action destroyed;
    + GameObject player;
    + GameObject destroyerRef;

   + OnCollide(GameObject obj):void
   + Move(GameObject obj, float speed):void
   + Shoot():void
   + SetDirection(Vector3 direction):void
   + SetParams(GameObject player, GameObject destroyer):void
}
class Bullet extends Weapon{
    +float speed;
    - Update() :void
    - OnTriggerEnter2D(Collider2D other):void
}

class Laser extends Weapon{
    + float speed;
    - Update():void
    - OnTriggerEnter2D(Collider2D other):void
}
class Missile extends Destroyer
{
    + float speed;
    - Update():void
    - OnTriggerEnter2D(Collider2D other):void
}
class MysteryShip extends Destroyer
{
    + float speed;
    - bool Destination ;
    - bool verticalOrder;
    + SetOrder(bool order) :void
    -  Update():void
    -  OnTriggerEnter2D(Collider2D other):void
}
class Rocket extends Weapon
{
    + float speed;
    + float speedOfRotation;
    - Update():void
    + Move(GameObject obj, float speed):void
    - Rotate(float rotationDegree):void
    - OnTriggerEnter2D(Collider2D other):void
}
@enduml